<?xml version="1.0" encoding="UTF-8"?>
<svg width="18px" height="20px" viewBox="0 0 18 20" version="1.1" xmlns="http://www.w3.org/2000/svg" xmlns:xlink="http://www.w3.org/1999/xlink">
    <!-- Generator: sketchtool 55 (78076) - https://sketchapp.com -->
    <title>4C6A2827-97C1-46EA-BF78-0122239E0CF9</title>
    <desc>Created with sketchtool.</desc>
    <defs>
        <path d="M14,12.5 C13.116875,12.5 12.3051953,12.8054297 11.6644531,13.316211 L7.66109374,10.8141016 C7.77964871,10.2778283 7.77964871,9.72213263 7.66109374,9.18585937 L11.6644531,6.68374998 C12.3051953,7.1945703 13.116875,7.49999999 14,7.49999999 C16.0710547,7.49999999 17.75,5.82105467 17.75,3.74999997 C17.75,1.67894527 16.0710547,-4.9999926e-08 14,-4.9999926e-08 C11.9289453,-4.9999926e-08 10.25,1.67894527 10.25,3.74999997 C10.25,4.02960935 10.2808594,4.3019531 10.3389063,4.56410154 L6.33554686,7.06621092 C5.69480467,6.55542967 4.88312498,6.24999998 3.99999998,6.24999998 C1.92894528,6.24999998 0.249999956,7.9289453 0.249999956,9.99999995 C0.249999956,12.0710547 1.92894528,13.75 3.99999998,13.75 C4.88312498,13.75 5.69480467,13.4445703 6.33554686,12.9337891 L10.3389063,15.4358985 C10.2797326,15.7032216 10.2499205,15.976206 10.25,16.25 C10.25,18.3210547 11.9289453,20.0000001 14,20.0000001 C16.0710547,20.0000001 17.75,18.3210547 17.75,16.25 C17.75,14.1789453 16.0710547,12.5 14,12.5 Z" id="path-1"></path>
    </defs>
    <g id="Screens" stroke="none" stroke-width="1" fill="none" fill-rule="evenodd">
        <g id="L---details-video" transform="translate(-171.000000, -265.000000)">
            <g id="cta" transform="translate(0.000000, 253.000000)">
                <g id="fav-copy" transform="translate(120.000000, 0.000000)">
                    <g id="Group" transform="translate(51.000000, 12.000000)">
                        <mask id="mask-2" fill="white">
                            <use xlink:href="#path-1"></use>
                        </mask>
                        <g id="share-alt"></g>
                        <g id="🎨-color" mask="url(#mask-2)" fill="#B4B4B4">
                            <g transform="translate(-3.000000, -2.000000)" id="🎨-Color">
                                <rect x="0" y="0" width="24" height="24"></rect>
                            </g>
                        </g>
                    </g>
                </g>
            </g>
        </g>
    </g>
</svg>